ADP 21회차 기출
…
6 Encoding 방법

6.1 Label encoding

알파벳 순으로 번호를 매기기 때문에 범주형 변수 코딩에 대한 수치 정보가 반영되는 문제가 있음

순서형 변수일 경우 사용

dat1 %>% 
  recipe(grade~.) %>% 
  step_dummy(all_nominal()) %>% 
  prep() %>% 
  juice()

## # A tibble: 366 x 11
##    famrel freetime goout  dalc  walc health absences grade school_MS sex_M
##     <int>    <int> <int> <int> <int>  <int>    <int> <int>     <dbl> <dbl>
##  1      4        3     4     1     1      3        6     1         0     0
##  2      5        3     3     1     1      3        4     1         0     0
##  3      4        3     2     2     3      3       10     4         0     0
##  4      3        2     2     1     1      5        2     9         0     0
##  5      4        3     2     1     2      5        4     4         0     0
##  6      5        4     2     1     2      5       10     9         0     1
##  7      4        4     4     1     1      3        0     5         0     1
##  8      4        1     4     1     1      1        6     1         0     0
##  9      5        5     3     1     1      5        0     9         0     1
## 10      3        3     3     1     2      2        0     3         0     0
## # ... with 356 more rows, and 1 more variable: paid_yes <dbl>
…
