ADP4
…
## The following object is masked from 'package:stats':
## 
##     step

cancer %>% 
  recipe(diagnosis~.) %>% 
  step_normalize(all_predictors()) %>% 
  step_pca(all_numeric(), threshold = 0.80) %>% 
  prep() %>% 
  juice()

## # A tibble: 569 x 6
##    diagnosis   PC1    PC2    PC3    PC4     PC5
##    <fct>     <dbl>  <dbl>  <dbl>  <dbl>   <dbl>
##  1 Malignant -9.18  -1.95 -1.12   3.63   1.19  
##  2 Malignant -2.39   3.76 -0.529  1.12  -0.621 
##  3 Malignant -5.73   1.07 -0.551  0.911  0.177 
##  4 Malignant -7.12 -10.3  -3.23   0.152  2.96  
##  5 Malignant -3.93   1.95  1.39   2.94  -0.546 
##  6 Malignant -2.38  -3.95 -2.93   0.940  1.06  
##  7 Malignant -2.24   2.69 -1.64   0.149 -0.0403
##  8 Malignant -2.14  -2.34 -0.871 -0.127  1.43  
##  9 Malignant -3.17  -3.39 -3.12  -0.601  1.52  
## 10 Malignant -6.35  -7.72 -4.34  -3.37  -1.71  
## # ... with 559 more rows
…
