ADP5
…
tot <- scale(tot)

set.seed(123)
km.res <- kmeans(tot, 5, nstart = 25)

result <- result %>% 
    bind_cols(km.res$cluster) %>% 
    rename(cluster = ...6)

## New names:
## * NA -> ...6

result

## # A tibble: 350 x 6
##        VID  year month   day total cluster
##      <int> <dbl> <dbl> <int> <dbl>   <int>
##  1 1481540  2015     1     1  38.1       1
##  2 1481540  2015     1     2  36.4       1
##  3 1481540  2015     1     3  41.1       1
##  4 1481540  2015     1     4  27.1       4
##  5 1481540  2015     1     5  27.3       4
##  6 1481540  2015     1     6  30.8       1
##  7 1481540  2015     1     7  29.6       1
##  8 1646660  2015     1     1  80.2       5
##  9 1646660  2015     1     2  61.1       5
## 10 1646660  2015     1     3  55.6       5
## # ... with 340 more rows
…
