ADP7
…
bts_v <- bts %>% 
  str_replace_all("id", "i") 

tibble(text = bts_v) %>% 
    unnest_tokens(output = word, 
                input = text, 
                to_lower = T #    
                ) %>% 
  anti_join(stop_words) %>% 
  head(n = 25)

## # A tibble: 25 x 1
##    word        
##    <chr>       
##  1 kim         
##  2 namjoon     
##  3 rm          
##  4 leader      
##  5 bts         
##  6 incredible  
##  7 honor       
##  8 invited     
##  9 occasion    
## 10 significance
## # ... with 15 more rows

add_rows()   

tibble    

stop_words %>% add_row(word = "syoure", #      
                       lexicon = "NEW",  #    
                       .before = 1) #    

## # A tibble: 1,150 x 2
##    word        lexicon
##    <chr>       <chr>  
##  1 syoure     NEW    
##  2 a           SMART  
##  3 a's         SMART  
##  4 able        SMART  
##  5 about       SMART  
##  6 above       SMART  
##  7 according   SMART  
##  8 accordingly SMART  
##  9 across      SMART  
## 10 actually    SMART  
## # ... with 1,140 more rows
…
tibble(text = bts_v) %>% 
    unnest_tokens(output = word, 
                input = text, 
                to_lower = T #    
                ) %>% 
  anti_join(stop_words2) %>% 
  head(n = 25)

## # A tibble: 25 x 1
##    word        
##    <chr>       
##  1 kim         
##  2 namjoon     
##  3 rm          
##  4 leader      
##  5 bts         
##  6 incredible  
##  7 honor       
##  8 invited     
##  9 occasion    
## 10 significance
## # ... with 15 more rows
…
